{
  "name": "badgerstorj-fips_mode_setup",
  "version": "0.0.3",
  "author": "Andrew Hart",
  "summary": "Manages fips_mode_setup.",
  "license": "Apache-2.0",
  "source": "https://gitlab.com/badgerstorj/fips_mode_setup",
  "project_page": "https://gitlab.com/badgerstorj/fips_mode_setup",
  "issues_url": "https://gitlab.com/badgerstorj/fips_mode_setup/-/issues",
  "dependencies": [
  ],
  "data_provider": "hiera",
  "operatingsystem_support": [
    {
      "operatingsystem": "RedHat",
      "operatingsystemrelease": [
        "7",
        "8"
      ]
    },
    {
      "operatingsystem": "CentOS",
      "operatingsystemrelease": [
        "7",
        "8"
      ]
    }
  ],
  "requirements": [
    {"name": "puppet", "version_requirement": ">= 4.0.0"}
  ],
  "description": "fips_mode_setup puppet module"
}

